solid OpenSCAD_Model
  facet normal 0 -1 2.22045e-16
    outer loop
      vertex -15.063 -5 4.15823
      vertex -15.5 -5 1.11022e-15
      vertex -15.063 -5 -4.15823
    endloop
  endfacet
  facet normal 0 -1 2.22045e-16
    outer loop
      vertex 0.098336 -5 -0.935603
      vertex -15.063 -5 4.15823
      vertex -14.7894 -5 -5
    endloop
  endfacet
  facet normal 0 -1 2.22045e-16
    outer loop
      vertex -14.7894 -5 -5
      vertex -15.063 -5 4.15823
      vertex -15.063 -5 -4.15823
    endloop
  endfacet
  facet normal 0 -1 2.22045e-16
    outer loop
      vertex -14.7894 -5 5
      vertex -15.063 -5 4.15823
      vertex 14.7894 -5 5
    endloop
  endfacet
  facet normal 0 -1 2.22045e-16
    outer loop
      vertex 0.859424 -5 -2.64503
      vertex 0.098336 -5 -0.935603
      vertex -14.7894 -5 -5
    endloop
  endfacet
  facet normal 0 -1 2.22045e-16
    outer loop
      vertex 0.859424 -5 2.64503
      vertex -15.063 -5 4.15823
      vertex 0.098336 -5 0.935603
    endloop
  endfacet
  facet normal 0 -1 2.22045e-16
    outer loop
      vertex 2.25 -5 3.89711
      vertex -15.063 -5 4.15823
      vertex 0.859424 -5 2.64503
    endloop
  endfacet
  facet normal 0 -1 2.22045e-16
    outer loop
      vertex 7.51109 -5 3.34415
      vertex 8.61095 -5 1.83032
      vertex 14.7894 -5 5
    endloop
  endfacet
  facet normal 0 -1 2.22045e-16
    outer loop
      vertex 4.02962 -5 4.47535
      vertex -15.063 -5 4.15823
      vertex 2.25 -5 3.89711
    endloop
  endfacet
  facet normal 0 -1 2.22045e-16
    outer loop
      vertex 14.7894 -5 5
      vertex -15.063 -5 4.15823
      vertex 4.02962 -5 4.47535
    endloop
  endfacet
  facet normal 0 -1 2.22045e-16
    outer loop
      vertex 8.61095 -5 -1.83031
      vertex 7.51109 -5 -3.34415
      vertex 14.7894 -5 -5
    endloop
  endfacet
  facet normal 0 -1 2.22045e-16
    outer loop
      vertex 14.7894 -5 5
      vertex 4.02962 -5 4.47535
      vertex 5.89058 -5 4.27975
    endloop
  endfacet
  facet normal 0 -1 2.22045e-16
    outer loop
      vertex 14.7894 -5 5
      vertex 8.61095 -5 1.83032
      vertex 14.7894 -5 -5
    endloop
  endfacet
  facet normal 0 -1 2.22045e-16
    outer loop
      vertex 8.61095 -5 1.83032
      vertex 9 -5 1.11022e-15
      vertex 14.7894 -5 -5
    endloop
  endfacet
  facet normal 0 -1 2.22045e-16
    outer loop
      vertex 9 -5 1.11022e-15
      vertex 8.61095 -5 -1.83031
      vertex 14.7894 -5 -5
    endloop
  endfacet
  facet normal 0 -1 2.22045e-16
    outer loop
      vertex 2.25 -5 -3.89711
      vertex 0.859424 -5 -2.64503
      vertex -14.7894 -5 -5
    endloop
  endfacet
  facet normal 0 -1 2.22045e-16
    outer loop
      vertex 14.7894 -5 -5
      vertex 7.51109 -5 -3.34415
      vertex 5.89058 -5 -4.27975
    endloop
  endfacet
  facet normal 0 -1 2.22045e-16
    outer loop
      vertex 14.7894 -5 -5
      vertex 4.02962 -5 -4.47535
      vertex -14.7894 -5 -5
    endloop
  endfacet
  facet normal 0 -1 2.22045e-16
    outer loop
      vertex 14.7894 -5 -5
      vertex 5.89058 -5 -4.27975
      vertex 4.02962 -5 -4.47535
    endloop
  endfacet
  facet normal 0 -1 2.22045e-16
    outer loop
      vertex 4.02962 -5 -4.47535
      vertex 2.25 -5 -3.89711
      vertex -14.7894 -5 -5
    endloop
  endfacet
  facet normal 0 -1 2.22045e-16
    outer loop
      vertex 0.098336 -5 -0.935603
      vertex 0.098336 -5 0.935603
      vertex -15.063 -5 4.15823
    endloop
  endfacet
  facet normal 0 -1 2.22045e-16
    outer loop
      vertex 5.89058 -5 4.27975
      vertex 7.51109 -5 3.34415
      vertex 14.7894 -5 5
    endloop
  endfacet
  facet normal -0.994522 -2.321e-17 -0.104528
    outer loop
      vertex -15.5 -5 1.11022e-15
      vertex -15.5 5 -1.11022e-15
      vertex -15.063 -5 -4.15823
    endloop
  endfacet
  facet normal -0.994522 -2.321e-17 -0.104528
    outer loop
      vertex -15.063 -5 -4.15823
      vertex -15.5 5 -1.11022e-15
      vertex -15.063 5 -4.15823
    endloop
  endfacet
  facet normal -0.994522 2.321e-17 0.104528
    outer loop
      vertex -15.5 -5 1.11022e-15
      vertex -15.063 -5 4.15823
      vertex -15.5 5 -1.11022e-15
    endloop
  endfacet
  facet normal -0.994522 2.321e-17 0.104528
    outer loop
      vertex -15.5 5 -1.11022e-15
      vertex -15.063 -5 4.15823
      vertex -15.063 5 4.15823
    endloop
  endfacet
  facet normal -0.951057 6.86156e-17 0.309017
    outer loop
      vertex -15.063 -5 4.15823
      vertex -14.7894 -5 5
      vertex -15.063 5 4.15823
    endloop
  endfacet
  facet normal -0.951057 6.86156e-17 0.309017
    outer loop
      vertex -15.063 5 4.15823
      vertex -14.7894 -5 5
      vertex -14.7894 5 5
    endloop
  endfacet
  facet normal 0 0 1
    outer loop
      vertex -4.97038 -4.47535 5
      vertex -14.7894 -5 5
      vertex 14.7894 -5 5
    endloop
  endfacet
  facet normal 0 0 1
    outer loop
      vertex -0.389045 1.83031 5
      vertex 0 0 5
      vertex 14.7894 -5 5
    endloop
  endfacet
  facet normal 0 0 1
    outer loop
      vertex 14.7894 5 5
      vertex -14.7894 5 5
      vertex 15.063 4.15823 5
    endloop
  endfacet
  facet normal 0 0 1
    outer loop
      vertex -14.7894 5 5
      vertex -14.7894 -5 5
      vertex -8.90166 -0.935603 5
    endloop
  endfacet
  facet normal 0 0 1
    outer loop
      vertex -0.389045 -1.83031 5
      vertex -1.48891 -3.34415 5
      vertex 14.7894 -5 5
    endloop
  endfacet
  facet normal 0 0 1
    outer loop
      vertex -14.7894 5 5
      vertex -8.90166 -0.935603 5
      vertex -8.90166 0.935603 5
    endloop
  endfacet
  facet normal 0 0 1
    outer loop
      vertex -4.97038 -4.47535 5
      vertex -6.75 -3.89711 5
      vertex -14.7894 -5 5
    endloop
  endfacet
  facet normal 0 0 1
    outer loop
      vertex -14.7894 5 5
      vertex -8.90166 0.935603 5
      vertex -8.14058 2.64503 5
    endloop
  endfacet
  facet normal 0 0 1
    outer loop
      vertex -0.389045 1.83031 5
      vertex 14.7894 -5 5
      vertex 15.063 -4.15823 5
    endloop
  endfacet
  facet normal 0 0 1
    outer loop
      vertex -4.97038 4.47535 5
      vertex -14.7894 5 5
      vertex -6.75 3.89711 5
    endloop
  endfacet
  facet normal 0 0 1
    outer loop
      vertex 15.063 4.15823 5
      vertex -14.7894 5 5
      vertex -4.97038 4.47535 5
    endloop
  endfacet
  facet normal 0 0 1
    outer loop
      vertex -1.48891 3.34415 5
      vertex -0.389045 1.83031 5
      vertex 15.5 0 5
    endloop
  endfacet
  facet normal 0 0 1
    outer loop
      vertex 15.063 4.15823 5
      vertex -4.97038 4.47535 5
      vertex -3.10942 4.27975 5
    endloop
  endfacet
  facet normal 0 0 1
    outer loop
      vertex 15.063 4.15823 5
      vertex -1.48891 3.34415 5
      vertex 15.5 0 5
    endloop
  endfacet
  facet normal 0 0 1
    outer loop
      vertex 15.5 0 5
      vertex -0.389045 1.83031 5
      vertex 15.063 -4.15823 5
    endloop
  endfacet
  facet normal 0 0 1
    outer loop
      vertex -3.10942 4.27975 5
      vertex -1.48891 3.34415 5
      vertex 15.063 4.15823 5
    endloop
  endfacet
  facet normal 0 0 1
    outer loop
      vertex -1.48891 -3.34415 5
      vertex -3.10942 -4.27975 5
      vertex 14.7894 -5 5
    endloop
  endfacet
  facet normal 0 0 1
    outer loop
      vertex -3.10942 -4.27975 5
      vertex -4.97038 -4.47535 5
      vertex 14.7894 -5 5
    endloop
  endfacet
  facet normal 0 0 1
    outer loop
      vertex -8.14058 -2.64503 5
      vertex -14.7894 -5 5
      vertex -6.75 -3.89711 5
    endloop
  endfacet
  facet normal 0 0 1
    outer loop
      vertex -8.90166 -0.935603 5
      vertex -14.7894 -5 5
      vertex -8.14058 -2.64503 5
    endloop
  endfacet
  facet normal 0 0 1
    outer loop
      vertex 0 0 5
      vertex -0.389045 -1.83031 5
      vertex 14.7894 -5 5
    endloop
  endfacet
  facet normal 0 0 1
    outer loop
      vertex -8.14058 2.64503 5
      vertex -6.75 3.89711 5
      vertex -14.7894 5 5
    endloop
  endfacet
  facet normal 0.951057 -0.309017 0
    outer loop
      vertex 14.7894 -5 5
      vertex 14.7894 -5 -5
      vertex 15.063 -4.15823 -5
    endloop
  endfacet
  facet normal 0.951057 -0.309017 0
    outer loop
      vertex 15.063 -4.15823 5
      vertex 14.7894 -5 5
      vertex 15.063 -4.15823 -5
    endloop
  endfacet
  facet normal 0 0 -1
    outer loop
      vertex -0.389045 -1.83031 -5
      vertex 15.063 4.15823 -5
      vertex 15.5 0 -5
    endloop
  endfacet
  facet normal 0 0 -1
    outer loop
      vertex -1.48891 -3.34415 -5
      vertex 15.5 0 -5
      vertex 15.063 -4.15823 -5
    endloop
  endfacet
  facet normal 0 0 -1
    outer loop
      vertex -14.7894 -5 -5
      vertex 15.063 -4.15823 -5
      vertex 14.7894 -5 -5
    endloop
  endfacet
  facet normal 0 0 -1
    outer loop
      vertex -6.75 3.89711 -5
      vertex -14.7894 5 -5
      vertex -4.97038 4.47535 -5
    endloop
  endfacet
  facet normal 0 0 -1
    outer loop
      vertex -14.7894 5 -5
      vertex -8.90166 0.935603 -5
      vertex -14.7894 -5 -5
    endloop
  endfacet
  facet normal 0 0 -1
    outer loop
      vertex -1.48891 3.34415 -5
      vertex 14.7894 5 -5
      vertex -0.389045 1.83031 -5
    endloop
  endfacet
  facet normal 0 0 -1
    outer loop
      vertex -8.90166 0.935603 -5
      vertex -8.90166 -0.935603 -5
      vertex -14.7894 -5 -5
    endloop
  endfacet
  facet normal 0 0 -1
    outer loop
      vertex -8.90166 -0.935603 -5
      vertex -8.14058 -2.64503 -5
      vertex -14.7894 -5 -5
    endloop
  endfacet
  facet normal 0 0 -1
    outer loop
      vertex -1.48891 -3.34415 -5
      vertex 15.063 -4.15823 -5
      vertex -3.10942 -4.27975 -5
    endloop
  endfacet
  facet normal 0 0 -1
    outer loop
      vertex -14.7894 -5 -5
      vertex -6.75 -3.89711 -5
      vertex -4.97038 -4.47535 -5
    endloop
  endfacet
  facet normal 0 0 -1
    outer loop
      vertex -14.7894 -5 -5
      vertex -4.97038 -4.47535 -5
      vertex 15.063 -4.15823 -5
    endloop
  endfacet
  facet normal 0 0 -1
    outer loop
      vertex -4.97038 -4.47535 -5
      vertex -3.10942 -4.27975 -5
      vertex 15.063 -4.15823 -5
    endloop
  endfacet
  facet normal 0 0 -1
    outer loop
      vertex -0.389045 -1.83031 -5
      vertex 15.5 0 -5
      vertex -1.48891 -3.34415 -5
    endloop
  endfacet
  facet normal 0 0 -1
    outer loop
      vertex -3.10942 4.27975 -5
      vertex 14.7894 5 -5
      vertex -1.48891 3.34415 -5
    endloop
  endfacet
  facet normal 0 0 -1
    outer loop
      vertex -4.97038 4.47535 -5
      vertex 14.7894 5 -5
      vertex -3.10942 4.27975 -5
    endloop
  endfacet
  facet normal 0 0 -1
    outer loop
      vertex -14.7894 5 -5
      vertex 14.7894 5 -5
      vertex -4.97038 4.47535 -5
    endloop
  endfacet
  facet normal 0 0 -1
    outer loop
      vertex -14.7894 5 -5
      vertex -6.75 3.89711 -5
      vertex -8.14058 2.64503 -5
    endloop
  endfacet
  facet normal 0 0 -1
    outer loop
      vertex -14.7894 5 -5
      vertex -8.14058 2.64503 -5
      vertex -8.90166 0.935603 -5
    endloop
  endfacet
  facet normal 0 0 -1
    outer loop
      vertex -6.75 -3.89711 -5
      vertex -14.7894 -5 -5
      vertex -8.14058 -2.64503 -5
    endloop
  endfacet
  facet normal 0 0 -1
    outer loop
      vertex 0 0 -5
      vertex 14.7894 5 -5
      vertex 15.063 4.15823 -5
    endloop
  endfacet
  facet normal 0 0 -1
    outer loop
      vertex -0.389045 1.83031 -5
      vertex 14.7894 5 -5
      vertex 0 0 -5
    endloop
  endfacet
  facet normal 0 0 -1
    outer loop
      vertex 0 0 -5
      vertex 15.063 4.15823 -5
      vertex -0.389045 -1.83031 -5
    endloop
  endfacet
  facet normal -0.951057 -6.86156e-17 -0.309017
    outer loop
      vertex -15.063 -5 -4.15823
      vertex -15.063 5 -4.15823
      vertex -14.7894 -5 -5
    endloop
  endfacet
  facet normal -0.951057 -6.86156e-17 -0.309017
    outer loop
      vertex -14.7894 -5 -5
      vertex -15.063 5 -4.15823
      vertex -14.7894 5 -5
    endloop
  endfacet
  facet normal 1 0 0
    outer loop
      vertex 0.098336 5 -0.935603
      vertex 0.098336 5 0.935603
      vertex 0.098336 -5 0.935603
    endloop
  endfacet
  facet normal 1 0 0
    outer loop
      vertex 0.098336 -5 -0.935603
      vertex 0.098336 5 -0.935603
      vertex 0.098336 -5 0.935603
    endloop
  endfacet
  facet normal 0.913545 9.03137e-17 0.406737
    outer loop
      vertex 0.859424 -5 -2.64503
      vertex 0.859424 5 -2.64503
      vertex 0.098336 5 -0.935603
    endloop
  endfacet
  facet normal 0.913545 9.03137e-17 0.406737
    outer loop
      vertex 0.098336 -5 -0.935603
      vertex 0.859424 -5 -2.64503
      vertex 0.098336 5 -0.935603
    endloop
  endfacet
  facet normal 0.669131 1.65011e-16 0.743145
    outer loop
      vertex 2.25 -5 -3.89711
      vertex 2.25 5 -3.89711
      vertex 0.859424 5 -2.64503
    endloop
  endfacet
  facet normal 0.669131 1.65011e-16 0.743145
    outer loop
      vertex 0.859424 -5 -2.64503
      vertex 2.25 -5 -3.89711
      vertex 0.859424 5 -2.64503
    endloop
  endfacet
  facet normal 0.309017 2.11177e-16 0.951056
    outer loop
      vertex 4.02962 -5 -4.47535
      vertex 4.02962 5 -4.47535
      vertex 2.25 5 -3.89711
    endloop
  endfacet
  facet normal 0.309017 2.11177e-16 0.951056
    outer loop
      vertex 2.25 -5 -3.89711
      vertex 4.02962 -5 -4.47535
      vertex 2.25 5 -3.89711
    endloop
  endfacet
  facet normal -0.104529 2.20828e-16 0.994522
    outer loop
      vertex 5.89058 -5 -4.27975
      vertex 5.89058 5 -4.27975
      vertex 4.02962 5 -4.47535
    endloop
  endfacet
  facet normal -0.104529 2.20828e-16 0.994522
    outer loop
      vertex 4.02962 -5 -4.47535
      vertex 5.89058 -5 -4.27975
      vertex 4.02962 5 -4.47535
    endloop
  endfacet
  facet normal -0.5 1.92296e-16 0.866026
    outer loop
      vertex 7.51109 -5 -3.34415
      vertex 7.51109 5 -3.34415
      vertex 5.89058 5 -4.27975
    endloop
  endfacet
  facet normal -0.5 1.92296e-16 0.866026
    outer loop
      vertex 5.89058 -5 -4.27975
      vertex 7.51109 -5 -3.34415
      vertex 5.89058 5 -4.27975
    endloop
  endfacet
  facet normal -0.809017 1.30515e-16 0.587785
    outer loop
      vertex 8.61095 5 -1.83032
      vertex 7.51109 5 -3.34415
      vertex 8.61095 -5 -1.83031
    endloop
  endfacet
  facet normal -0.809017 1.30515e-16 0.587785
    outer loop
      vertex 8.61095 -5 -1.83031
      vertex 7.51109 5 -3.34415
      vertex 7.51109 -5 -3.34415
    endloop
  endfacet
  facet normal -0.978148 4.61656e-17 0.207911
    outer loop
      vertex 9 5 -1.11022e-15
      vertex 8.61095 5 -1.83032
      vertex 9 -5 1.11022e-15
    endloop
  endfacet
  facet normal -0.978148 4.61656e-17 0.207911
    outer loop
      vertex 9 -5 1.11022e-15
      vertex 8.61095 5 -1.83032
      vertex 8.61095 -5 -1.83031
    endloop
  endfacet
  facet normal -0.978148 -4.61656e-17 -0.207911
    outer loop
      vertex 9 5 -1.11022e-15
      vertex 9 -5 1.11022e-15
      vertex 8.61095 5 1.83031
    endloop
  endfacet
  facet normal -0.978148 -4.61656e-17 -0.207911
    outer loop
      vertex 8.61095 5 1.83031
      vertex 9 -5 1.11022e-15
      vertex 8.61095 -5 1.83032
    endloop
  endfacet
  facet normal -0.809017 -1.30515e-16 -0.587785
    outer loop
      vertex 8.61095 5 1.83031
      vertex 8.61095 -5 1.83032
      vertex 7.51109 5 3.34415
    endloop
  endfacet
  facet normal -0.809017 -1.30515e-16 -0.587785
    outer loop
      vertex 7.51109 5 3.34415
      vertex 8.61095 -5 1.83032
      vertex 7.51109 -5 3.34415
    endloop
  endfacet
  facet normal -0.5 -1.92296e-16 -0.866026
    outer loop
      vertex 7.51109 5 3.34415
      vertex 7.51109 -5 3.34415
      vertex 5.89058 5 4.27975
    endloop
  endfacet
  facet normal -0.5 -1.92296e-16 -0.866026
    outer loop
      vertex 5.89058 5 4.27975
      vertex 7.51109 -5 3.34415
      vertex 5.89058 -5 4.27975
    endloop
  endfacet
  facet normal -0.104529 -2.20828e-16 -0.994522
    outer loop
      vertex 5.89058 5 4.27975
      vertex 5.89058 -5 4.27975
      vertex 4.02962 5 4.47535
    endloop
  endfacet
  facet normal -0.104529 -2.20828e-16 -0.994522
    outer loop
      vertex 4.02962 5 4.47535
      vertex 5.89058 -5 4.27975
      vertex 4.02962 -5 4.47535
    endloop
  endfacet
  facet normal 0.309017 -2.11177e-16 -0.951056
    outer loop
      vertex 4.02962 5 4.47535
      vertex 4.02962 -5 4.47535
      vertex 2.25 5 3.89711
    endloop
  endfacet
  facet normal 0.309017 -2.11177e-16 -0.951056
    outer loop
      vertex 2.25 5 3.89711
      vertex 4.02962 -5 4.47535
      vertex 2.25 -5 3.89711
    endloop
  endfacet
  facet normal 0.669131 -1.65011e-16 -0.743145
    outer loop
      vertex 2.25 5 3.89711
      vertex 2.25 -5 3.89711
      vertex 0.859424 5 2.64503
    endloop
  endfacet
  facet normal 0.669131 -1.65011e-16 -0.743145
    outer loop
      vertex 0.859424 5 2.64503
      vertex 2.25 -5 3.89711
      vertex 0.859424 -5 2.64503
    endloop
  endfacet
  facet normal 0.913545 -9.03137e-17 -0.406737
    outer loop
      vertex 0.098336 5 0.935603
      vertex 0.859424 5 2.64503
      vertex 0.859424 -5 2.64503
    endloop
  endfacet
  facet normal 0.913545 -9.03137e-17 -0.406737
    outer loop
      vertex 0.098336 -5 0.935603
      vertex 0.098336 5 0.935603
      vertex 0.859424 -5 2.64503
    endloop
  endfacet
  facet normal 0 1 -2.22045e-16
    outer loop
      vertex -15.5 5 -1.11022e-15
      vertex -15.063 5 4.15823
      vertex -15.063 5 -4.15823
    endloop
  endfacet
  facet normal 0 1 -2.22045e-16
    outer loop
      vertex -15.063 5 -4.15823
      vertex -15.063 5 4.15823
      vertex -14.7894 5 5
    endloop
  endfacet
  facet normal 0 1 -2.22045e-16
    outer loop
      vertex 4.02962 5 4.47535
      vertex -14.7894 5 5
      vertex 14.7894 5 5
    endloop
  endfacet
  facet normal 0 1 -2.22045e-16
    outer loop
      vertex 8.61095 5 -1.83032
      vertex 14.7894 5 5
      vertex 14.7894 5 -5
    endloop
  endfacet
  facet normal 0 1 -2.22045e-16
    outer loop
      vertex -15.063 5 -4.15823
      vertex 14.7894 5 -5
      vertex -14.7894 5 -5
    endloop
  endfacet
  facet normal 0 1 -2.22045e-16
    outer loop
      vertex -15.063 5 -4.15823
      vertex -14.7894 5 5
      vertex 0.098336 5 0.935603
    endloop
  endfacet
  facet normal 0 1 -2.22045e-16
    outer loop
      vertex 7.51109 5 -3.34415
      vertex 14.7894 5 -5
      vertex 5.89058 5 -4.27975
    endloop
  endfacet
  facet normal 0 1 -2.22045e-16
    outer loop
      vertex -15.063 5 -4.15823
      vertex 0.098336 5 -0.935603
      vertex 0.859424 5 -2.64503
    endloop
  endfacet
  facet normal 0 1 -2.22045e-16
    outer loop
      vertex -15.063 5 -4.15823
      vertex 0.859424 5 -2.64503
      vertex 2.25 5 -3.89711
    endloop
  endfacet
  facet normal 0 1 -2.22045e-16
    outer loop
      vertex -15.063 5 -4.15823
      vertex 2.25 5 -3.89711
      vertex 4.02962 5 -4.47535
    endloop
  endfacet
  facet normal 0 1 -2.22045e-16
    outer loop
      vertex -15.063 5 -4.15823
      vertex 4.02962 5 -4.47535
      vertex 14.7894 5 -5
    endloop
  endfacet
  facet normal 0 1 -2.22045e-16
    outer loop
      vertex 4.02962 5 -4.47535
      vertex 5.89058 5 -4.27975
      vertex 14.7894 5 -5
    endloop
  endfacet
  facet normal 0 1 -2.22045e-16
    outer loop
      vertex 8.61095 5 -1.83032
      vertex 14.7894 5 -5
      vertex 7.51109 5 -3.34415
    endloop
  endfacet
  facet normal 0 1 -2.22045e-16
    outer loop
      vertex 9 5 -1.11022e-15
      vertex 14.7894 5 5
      vertex 8.61095 5 -1.83032
    endloop
  endfacet
  facet normal 0 1 -2.22045e-16
    outer loop
      vertex 7.51109 5 3.34415
      vertex 14.7894 5 5
      vertex 8.61095 5 1.83031
    endloop
  endfacet
  facet normal 0 1 -2.22045e-16
    outer loop
      vertex 8.61095 5 1.83031
      vertex 14.7894 5 5
      vertex 9 5 -1.11022e-15
    endloop
  endfacet
  facet normal 0 1 -2.22045e-16
    outer loop
      vertex 2.25 5 3.89711
      vertex -14.7894 5 5
      vertex 4.02962 5 4.47535
    endloop
  endfacet
  facet normal 0 1 -2.22045e-16
    outer loop
      vertex 0.859424 5 2.64503
      vertex -14.7894 5 5
      vertex 2.25 5 3.89711
    endloop
  endfacet
  facet normal 0 1 -2.22045e-16
    outer loop
      vertex 7.51109 5 3.34415
      vertex 5.89058 5 4.27975
      vertex 14.7894 5 5
    endloop
  endfacet
  facet normal 0 1 -2.22045e-16
    outer loop
      vertex 5.89058 5 4.27975
      vertex 4.02962 5 4.47535
      vertex 14.7894 5 5
    endloop
  endfacet
  facet normal 0 1 -2.22045e-16
    outer loop
      vertex 0.098336 5 0.935603
      vertex -14.7894 5 5
      vertex 0.859424 5 2.64503
    endloop
  endfacet
  facet normal 0 1 -2.22045e-16
    outer loop
      vertex 0.098336 5 -0.935603
      vertex -15.063 5 -4.15823
      vertex 0.098336 5 0.935603
    endloop
  endfacet
  facet normal 0.951057 0.309017 0
    outer loop
      vertex 14.7894 5 -5
      vertex 14.7894 5 5
      vertex 15.063 4.15823 5
    endloop
  endfacet
  facet normal 0.951057 0.309017 0
    outer loop
      vertex 15.063 4.15823 -5
      vertex 14.7894 5 -5
      vertex 15.063 4.15823 5
    endloop
  endfacet
  facet normal 0.994522 0.104528 0
    outer loop
      vertex 15.5 0 -5
      vertex 15.063 4.15823 -5
      vertex 15.063 4.15823 5
    endloop
  endfacet
  facet normal 0.994522 0.104528 0
    outer loop
      vertex 15.5 0 5
      vertex 15.5 0 -5
      vertex 15.063 4.15823 5
    endloop
  endfacet
  facet normal 0.994522 -0.104528 0
    outer loop
      vertex 15.063 -4.15823 5
      vertex 15.063 -4.15823 -5
      vertex 15.5 0 -5
    endloop
  endfacet
  facet normal 0.994522 -0.104528 0
    outer loop
      vertex 15.5 0 5
      vertex 15.063 -4.15823 5
      vertex 15.5 0 -5
    endloop
  endfacet
  facet normal 1 0 0
    outer loop
      vertex -8.90166 0.935603 -5
      vertex -8.90166 0.935603 5
      vertex -8.90166 -0.935603 5
    endloop
  endfacet
  facet normal 1 0 0
    outer loop
      vertex -8.90166 -0.935603 -5
      vertex -8.90166 0.935603 -5
      vertex -8.90166 -0.935603 5
    endloop
  endfacet
  facet normal 0.913545 0.406737 0
    outer loop
      vertex -8.90166 -0.935603 5
      vertex -8.14058 -2.64503 5
      vertex -8.14058 -2.64503 -5
    endloop
  endfacet
  facet normal 0.913545 0.406737 0
    outer loop
      vertex -8.90166 -0.935603 -5
      vertex -8.90166 -0.935603 5
      vertex -8.14058 -2.64503 -5
    endloop
  endfacet
  facet normal 0.669131 0.743145 0
    outer loop
      vertex -6.75 -3.89711 5
      vertex -6.75 -3.89711 -5
      vertex -8.14058 -2.64503 5
    endloop
  endfacet
  facet normal 0.669131 0.743145 0
    outer loop
      vertex -8.14058 -2.64503 5
      vertex -6.75 -3.89711 -5
      vertex -8.14058 -2.64503 -5
    endloop
  endfacet
  facet normal 0.309017 0.951056 0
    outer loop
      vertex -4.97038 -4.47535 5
      vertex -4.97038 -4.47535 -5
      vertex -6.75 -3.89711 5
    endloop
  endfacet
  facet normal 0.309017 0.951056 0
    outer loop
      vertex -6.75 -3.89711 5
      vertex -4.97038 -4.47535 -5
      vertex -6.75 -3.89711 -5
    endloop
  endfacet
  facet normal -0.104529 0.994522 0
    outer loop
      vertex -3.10942 -4.27975 5
      vertex -3.10942 -4.27975 -5
      vertex -4.97038 -4.47535 5
    endloop
  endfacet
  facet normal -0.104529 0.994522 0
    outer loop
      vertex -4.97038 -4.47535 5
      vertex -3.10942 -4.27975 -5
      vertex -4.97038 -4.47535 -5
    endloop
  endfacet
  facet normal -0.5 0.866026 0
    outer loop
      vertex -1.48891 -3.34415 5
      vertex -1.48891 -3.34415 -5
      vertex -3.10942 -4.27975 5
    endloop
  endfacet
  facet normal -0.5 0.866026 0
    outer loop
      vertex -3.10942 -4.27975 5
      vertex -1.48891 -3.34415 -5
      vertex -3.10942 -4.27975 -5
    endloop
  endfacet
  facet normal -0.809017 0.587785 0
    outer loop
      vertex -0.389045 -1.83031 5
      vertex -0.389045 -1.83031 -5
      vertex -1.48891 -3.34415 5
    endloop
  endfacet
  facet normal -0.809017 0.587785 0
    outer loop
      vertex -1.48891 -3.34415 5
      vertex -0.389045 -1.83031 -5
      vertex -1.48891 -3.34415 -5
    endloop
  endfacet
  facet normal -0.978148 0.207911 0
    outer loop
      vertex 0 0 5
      vertex 0 0 -5
      vertex -0.389045 -1.83031 5
    endloop
  endfacet
  facet normal -0.978148 0.207911 0
    outer loop
      vertex -0.389045 -1.83031 5
      vertex 0 0 -5
      vertex -0.389045 -1.83031 -5
    endloop
  endfacet
  facet normal -0.978148 -0.207911 0
    outer loop
      vertex 0 0 5
      vertex -0.389045 1.83031 5
      vertex 0 0 -5
    endloop
  endfacet
  facet normal -0.978148 -0.207911 0
    outer loop
      vertex 0 0 -5
      vertex -0.389045 1.83031 5
      vertex -0.389045 1.83031 -5
    endloop
  endfacet
  facet normal -0.809017 -0.587785 0
    outer loop
      vertex -0.389045 1.83031 5
      vertex -1.48891 3.34415 5
      vertex -0.389045 1.83031 -5
    endloop
  endfacet
  facet normal -0.809017 -0.587785 0
    outer loop
      vertex -0.389045 1.83031 -5
      vertex -1.48891 3.34415 5
      vertex -1.48891 3.34415 -5
    endloop
  endfacet
  facet normal -0.5 -0.866026 0
    outer loop
      vertex -1.48891 3.34415 -5
      vertex -1.48891 3.34415 5
      vertex -3.10942 4.27975 5
    endloop
  endfacet
  facet normal -0.5 -0.866026 0
    outer loop
      vertex -3.10942 4.27975 -5
      vertex -1.48891 3.34415 -5
      vertex -3.10942 4.27975 5
    endloop
  endfacet
  facet normal -0.104529 -0.994522 0
    outer loop
      vertex -3.10942 4.27975 -5
      vertex -3.10942 4.27975 5
      vertex -4.97038 4.47535 5
    endloop
  endfacet
  facet normal -0.104529 -0.994522 0
    outer loop
      vertex -4.97038 4.47535 -5
      vertex -3.10942 4.27975 -5
      vertex -4.97038 4.47535 5
    endloop
  endfacet
  facet normal 0.309017 -0.951056 0
    outer loop
      vertex -4.97038 4.47535 -5
      vertex -4.97038 4.47535 5
      vertex -6.75 3.89711 5
    endloop
  endfacet
  facet normal 0.309017 -0.951056 0
    outer loop
      vertex -6.75 3.89711 -5
      vertex -4.97038 4.47535 -5
      vertex -6.75 3.89711 5
    endloop
  endfacet
  facet normal 0.669131 -0.743145 0
    outer loop
      vertex -6.75 3.89711 -5
      vertex -6.75 3.89711 5
      vertex -8.14058 2.64503 5
    endloop
  endfacet
  facet normal 0.669131 -0.743145 0
    outer loop
      vertex -8.14058 2.64503 -5
      vertex -6.75 3.89711 -5
      vertex -8.14058 2.64503 5
    endloop
  endfacet
  facet normal 0.913545 -0.406737 0
    outer loop
      vertex -8.14058 2.64503 -5
      vertex -8.14058 2.64503 5
      vertex -8.90166 0.935603 5
    endloop
  endfacet
  facet normal 0.913545 -0.406737 0
    outer loop
      vertex -8.90166 0.935603 -5
      vertex -8.14058 2.64503 -5
      vertex -8.90166 0.935603 5
    endloop
  endfacet
endsolid OpenSCAD_Model
